EESchema Schematic File Version 4
EELAYER 30 0
EELAYER END
$Descr A4 11693 8268
encoding utf-8
Sheet 1 1
Title ""
Date ""
Rev ""
Comp ""
Comment1 ""
Comment2 ""
Comment3 ""
Comment4 ""
$EndDescr
$Comp
L MCU_Module:Arduino_UNO_R2 A?
U 1 1 62578694
P 5000 4350
F 0 "A?" H 5000 5531 50  0000 C CNN
F 1 "Arduino_UNO_R2" H 5000 5440 50  0000 C CNN
F 2 "Module:Arduino_UNO_R2" H 5000 4350 50  0001 C CIN
F 3 "https://www.arduino.cc/en/Main/arduinoBoardUno" H 5000 4350 50  0001 C CNN
	1    5000 4350
	1    0    0    -1  
$EndComp
$Comp
L Display_Character:CA56-12EWA U?
U 1 1 6257951B
P 5550 1800
F 0 "U?" H 5550 2467 50  0000 C CNN
F 1 "CA56-12EWA" H 5550 2376 50  0000 C CNN
F 2 "Display_7Segment:CA56-12EWA" H 5550 1200 50  0001 C CNN
F 3 "http://www.kingbrightusa.com/images/catalog/SPEC/CA56-12EWA.pdf" H 5120 1830 50  0001 C CNN
	1    5550 1800
	1    0    0    -1  
$EndComp
Wire Wire Line
	4450 1500 4000 1500
Wire Wire Line
	4000 3950 4500 3950
Wire Wire Line
	4450 1600 3550 1600
Wire Wire Line
	3550 1600 3550 4050
Wire Wire Line
	3550 4050 4500 4050
Wire Wire Line
	4450 1700 3150 1700
Wire Wire Line
	3150 1700 3150 4150
Wire Wire Line
	3150 4150 4500 4150
Wire Wire Line
	4450 1800 2750 1800
Wire Wire Line
	2750 1800 2750 4250
Wire Wire Line
	2750 4250 4500 4250
Wire Wire Line
	4450 1900 2500 1900
Wire Wire Line
	2500 1900 2500 4350
Wire Wire Line
	2500 4350 4500 4350
Wire Wire Line
	4450 2000 2250 2000
Wire Wire Line
	2250 2000 2250 4450
Wire Wire Line
	2250 4450 4500 4450
Wire Wire Line
	4450 2100 2050 2100
Wire Wire Line
	2050 2100 2050 4550
Wire Wire Line
	2050 4550 4500 4550
Wire Wire Line
	4000 1500 4000 3950
Wire Wire Line
	6650 1900 7100 1900
Wire Wire Line
	7100 1900 7100 2750
Wire Wire Line
	7100 2750 4150 2750
Wire Wire Line
	4150 2750 4150 4650
Wire Wire Line
	4150 4650 4500 4650
Wire Wire Line
	6650 2000 7000 2000
Wire Wire Line
	7000 2000 7000 2900
Wire Wire Line
	7000 2900 4250 2900
Wire Wire Line
	4250 2900 4250 4750
Wire Wire Line
	4250 4750 4500 4750
Wire Wire Line
	6650 2100 6900 2100
Wire Wire Line
	6900 2100 6900 3050
Wire Wire Line
	6900 3050 4400 3050
Wire Wire Line
	4400 3050 4400 4850
Wire Wire Line
	4400 4850 4500 4850
Wire Wire Line
	4500 4950 3850 4950
Wire Wire Line
	3850 4950 3850 2550
Wire Wire Line
	3850 2550 6700 2550
Wire Wire Line
	6700 2550 6700 2200
Wire Wire Line
	6700 2200 6650 2200
$Comp
L Switch:SW_SPST SW?
U 1 1 625A779A
P 6850 4250
F 0 "SW?" H 6850 4485 50  0000 C CNN
F 1 "SW_SPST" H 6850 4394 50  0000 C CNN
F 2 "" H 6850 4250 50  0001 C CNN
F 3 "~" H 6850 4250 50  0001 C CNN
	1    6850 4250
	0    -1   -1   0   
$EndComp
Wire Wire Line
	5100 5450 5100 5600
Wire Wire Line
	5100 5600 6850 5600
Wire Wire Line
	6850 5600 6850 4450
$Comp
L Device:R 1k
U 1 1 625B221C
P 6850 3700
F 0 "1k" H 6920 3746 50  0000 L CNN
F 1 "R" H 6920 3655 50  0000 L CNN
F 2 "" V 6780 3700 50  0001 C CNN
F 3 "~" H 6850 3700 50  0001 C CNN
	1    6850 3700
	1    0    0    -1  
$EndComp
Wire Wire Line
	5200 3350 5200 3200
Wire Wire Line
	5200 3200 6850 3200
Wire Wire Line
	6850 3200 6850 3550
Wire Wire Line
	6850 3900 6850 4000
Wire Wire Line
	6850 4000 6000 4000
Wire Wire Line
	6000 4000 6000 4350
Wire Wire Line
	6000 4350 5500 4350
Connection ~ 6850 4000
Wire Wire Line
	6850 4000 6850 4050
$Comp
L Device:R 1k
U 1 1 625B53AB
P 7400 3950
F 0 "1k" H 7470 3996 50  0000 L CNN
F 1 "R" H 7470 3905 50  0000 L CNN
F 2 "" V 7330 3950 50  0001 C CNN
F 3 "~" H 7400 3950 50  0001 C CNN
	1    7400 3950
	1    0    0    -1  
$EndComp
$Comp
L Switch:SW_SPST SW?
U 1 1 625B6F44
P 7400 4550
F 0 "SW?" V 7354 4648 50  0000 L CNN
F 1 "SW_SPST" V 7445 4648 50  0000 L CNN
F 2 "" H 7400 4550 50  0001 C CNN
F 3 "~" H 7400 4550 50  0001 C CNN
	1    7400 4550
	0    1    1    0   
$EndComp
Wire Wire Line
	6850 3200 7400 3200
Wire Wire Line
	7400 3200 7400 3800
Connection ~ 6850 3200
Wire Wire Line
	7400 4100 7400 4250
Wire Wire Line
	7400 4750 7400 5600
Wire Wire Line
	7400 5600 6850 5600
Connection ~ 6850 5600
Wire Wire Line
	7400 4250 7150 4250
Wire Wire Line
	7150 4250 7150 4500
Wire Wire Line
	7150 4500 6000 4500
Wire Wire Line
	6000 4500 6000 4450
Wire Wire Line
	6000 4450 5500 4450
Connection ~ 7400 4250
Wire Wire Line
	7400 4250 7400 4350
$Comp
L Device:R 1k
U 1 1 625BFDE4
P 8100 4350
F 0 "1k" H 8170 4396 50  0000 L CNN
F 1 "R" H 8170 4305 50  0000 L CNN
F 2 "" V 8030 4350 50  0001 C CNN
F 3 "~" H 8100 4350 50  0001 C CNN
	1    8100 4350
	1    0    0    -1  
$EndComp
$Comp
L Device:R 1k
U 1 1 625C0213
P 9050 4700
F 0 "1k" H 9120 4746 50  0000 L CNN
F 1 "R" H 9120 4655 50  0000 L CNN
F 2 "" V 8980 4700 50  0001 C CNN
F 3 "~" H 9050 4700 50  0001 C CNN
	1    9050 4700
	1    0    0    -1  
$EndComp
$Comp
L Switch:SW_SPST SW?
U 1 1 625C0AA2
P 8100 4900
F 0 "SW?" V 8054 4998 50  0000 L CNN
F 1 "SW_SPST" V 8145 4998 50  0000 L CNN
F 2 "" H 8100 4900 50  0001 C CNN
F 3 "~" H 8100 4900 50  0001 C CNN
	1    8100 4900
	0    1    1    0   
$EndComp
$Comp
L Switch:SW_SPST SW?
U 1 1 625C14E6
P 9050 5250
F 0 "SW?" V 9004 5348 50  0000 L CNN
F 1 "SW_SPST" V 9095 5348 50  0000 L CNN
F 2 "" H 9050 5250 50  0001 C CNN
F 3 "~" H 9050 5250 50  0001 C CNN
	1    9050 5250
	0    1    1    0   
$EndComp
Wire Wire Line
	7400 3200 8100 3200
Wire Wire Line
	8100 3200 8100 4200
Connection ~ 7400 3200
Wire Wire Line
	8100 3200 9050 3200
Wire Wire Line
	9050 3200 9050 4550
Connection ~ 8100 3200
Wire Wire Line
	7400 5600 8100 5600
Wire Wire Line
	8100 5600 8100 5100
Connection ~ 7400 5600
Wire Wire Line
	8100 5600 9050 5600
Wire Wire Line
	9050 5600 9050 5450
Connection ~ 8100 5600
Wire Wire Line
	8100 4700 8100 4600
Wire Wire Line
	9050 5100 9050 5050
Connection ~ 9050 5050
Wire Wire Line
	9050 5050 9050 4850
Wire Wire Line
	8100 4600 7850 4600
Wire Wire Line
	7850 4600 7850 4800
Wire Wire Line
	5950 4800 5950 4550
Wire Wire Line
	5950 4550 5500 4550
Wire Wire Line
	5950 4800 7850 4800
Connection ~ 8100 4600
Wire Wire Line
	8100 4600 8100 4500
Wire Wire Line
	9050 5050 8600 5050
Wire Wire Line
	8600 5050 8600 5150
Wire Wire Line
	8600 5150 5800 5150
Wire Wire Line
	5800 5150 5800 4650
Wire Wire Line
	5800 4650 5500 4650
$EndSCHEMATC
